[
	{
		"active": true,
		"date": "2018-07-26",
		"openingHours": {
			"from": "1800", 
			"to": "2400"
		},
		"eventDescription": {
				"name": "Eröffnungsfeier",
				"type": "Kunst, Musik",
				"host": "Zweilandstadt Ulm/Neu-Ulm",
				"logos": [],
				"from": "1800",
				"to": "2400",
				"description": "Die Wilhelmsburg öffnet ihre Pforten - und es poppt Kunst raus!<br><br>Im Rahmen des „Pop up Space: Wilhelmsburg“ fördert die Stadt Ulm in diesem Jahr künstlerische und kulturelle Projekte im Herzen der Bundesfestung. Den Auftakt bildet am Donnerstag, den 26.07.2018 eine Eröffnungssfeier, die ab <b>18 Uhr</b> einige Specials bereit hält:<br><br><ul><li><b>Feierliche Eröffnung</b><br>durch Bürgermeisterin Iris Mann</li><li><b>This is | mine | all mine</b><br>Eröffnung der Installation von Silvia Wienefoet und Ralph Walcyk</li><li><b>Express Brass Band</b><br>furioser World-Brass-Sound aus München</li><li><b>Das Polygonalsystem</b><br>Ausstellung, interaktive Installation und Performance des Kollektivs Fischmuskeleiweiss/li><li><b>Bund auf Zeit</b><br>Performative Rauminstallation des Kollektivs carly/lasker-berlin/scheer</li><li><b>Tomogramm</b><br>Lichtinstallation des Künstlers Joachim Fleischer</li></ul>",
				"img": "180726_Eroeffnung@1x.jpg",
				"thumb": "180726_Eroeffnung@0.5x.jpg",
				"link": "",
				"price": "Eintritt frei"
		},
		"busSchedule": {
			"to": ["1730", "1800","1830","1900","1930","2000","2130","2200", "2230", "2300"],
			"back": ["1745", "1815", "1845", "1915", "1945", "2115", "2145", "2215", "2245", "2315"]
		}
	}, {
		"active": true,
		"date": "2018-07-27",
		"openingHours": {
			"from": "1800", 
			"to": "2400"
		},
		"eventDescription": {
				"name": "Wilhelm lass dein Haar herunter!",
				"type": "Kunst, Musik",
				"host": "Zweilandstadt Ulm/Neu-Ulm",
				"logos": [],
				"from": "1800",
				"to": "2300",
				"description": "Tag 2 des Pop Up Space auf der Wilhelmsburg: Wilhelm lass dein Haar herunter!<br><br>Im Rahmen des „Pop up Space: Wilhelmsburg“ fördert die Stadt Ulm in diesem Jahr künstlerische und kulturelle Projekte im Herzen der Bundesfestung. Am zweiten Tag des Pop Up Space gibt es folgende Specials:<br><br><ul><li><b>Das Polygonalsystem</b><br>Ausstellung, interaktive Installation und Performance des Kollektivs Fischmuskeleiweiss</li><li><b>Bund auf Zeit</b><br>Performative Rauminstallation des Kollektivs carly/lasker-berlin/scheer</li><li><b>Tomogramm</b><br>Lichtinstallation des Künstlers Joachim Fleischer</li><li><b>This is | mine | all mine</b><br>Installation von Silvia Wienefoet und Ralph Walcyk</li></ul><br>Zudem sorgt DJ Huppa aus Nepal für feine Klänge in den Mauern der Burg. Mit seinen Organic Downtempo Beats lässt es sich wunderbar entspannt in das Wochenende treiben. Für mehr Infos:<br><br><a href='https://www.facebook.com/djHuppa'>www.facebook.com/djHuppa</a><a href='https://www.mixcloud.com/huppa-shrestha/'>https://www.mixcloud.com/huppa-shrestha</a>",
				"img": "180727_Eroeffnung@1x.jpg",
				"thumb": "180727_Eroeffnung@0.5x.jpg",
				"link": "",
				"price": "Eintritt frei"
		},
		"busSchedule": {
			"to": ["1800","1830","1900","1930","2000","2130","2200", "2230", "2300", "2330"],
			"back": ["1815", "1845", "1915", "1945", "2115", "2145", "2215", "2245", "2315", "2345"]
		}
	}, {
		"active": true,
		"date": "2018-07-28",
		"openingHours": {
			"from": "1800", 
			"to": "2400"
		},
		"eventDescription": {
				"name": "Will Helm, will Burg!",
				"type": "Kunst, Musik",
				"host": "Zweilandstadt Ulm/Neu-Ulm",
				"logos": [],
				"from": "1800",
				"to": "2300",
				"description": "Tag 3 des Pop Up Space auf der Wilhelmsburg: Will Helm, will Burg!<br><br>Im Rahmen des „Pop up Space: Wilhelmsburg“ fördert die Stadt Ulm in diesem Jahr künstlerische und kulturelle Projekte im Herzen der Bundesfestung. Am dritten Tag des Pop Up Space gibt es folgende Specials:<br><br><ul><li><b>Das Polygonalsystem</b><br>Ausstellung, interaktive Installation und Performance des Kollektivs Fischmuskeleiweiss</li><li><b>Bund auf Zeit</b><br>Performative Rauminstallation des Kollektivs carly/lasker-berlin/scheer</li><li><b>Tomogramm</b><br>Lichtinstallation des Künstlers Joachim Fleischer</li><li><b>This is | mine | all mine</b><br>Installation von Silvia Wienefoet und Ralph Walcyk</li></ul><br>Am dritten Eröffnungstag sorgt Bashrew_Thee von der Kapernfahrt für bunte Klänge an der Burg. Mit einer Mischung aus Soul, Indie und Britpop hat er auf jeden Fall richtig gute Stimmung im Gepäck!<br><br>Für mehr Infos: <a href='https://www.facebook.com/Kapernfahrt/'>facebook.com/Kapernfahrt</a>",
				"img": "180728_Eroeffnung@1x.jpg",
				"thumb": "180728_Eroeffnung@0.5x.jpg",
				"link": "",
				"price": "Eintritt frei"
		},
		"busSchedule": {
			"to": ["1800","1830","1900","1930","2000","2130","2200", "2230", "2300", "2330"],
			"back": ["1815", "1845", "1915", "1945", "2115", "2145", "2215", "2245", "2315", "2345"]
		}
	}, {
		"active": true,
		"date": "2018-08-02",
		"openingHours": {
			"from": "1800", 
			"to": "2400"
		},
		"eventDescription": {
				"name": "Donnerstags auf der Burg - „Seltsame Liebe“",
				"type": "Live-Hörspiel",
				"host": "Radio Free FM und KunstWerk e.V. (feat. AKK)",
				"logos": [],
				"from": "2000",
				"to": "2300",
				"description": "Szenischer Dialog mit Musik nach dem Hörspiel “Die seltsamste Liebesgeschichte der Welt“ von Peter Hirche. In diesem bekanntesten Hörspiel von Peter Hirche aus dem Jahr 1953 geht es um zwei Liebende, die sich nicht kennen, die jedoch voneinander ahnen und miteinander träumen. Wieviel von der Realität der Welt und wieviel von der Realität des anderen will ich eigentlich wahrhaben?<br><br>Sie: Sag, dass es nicht wahr ist.<br>Er: Doch.<br>Sie: Gibt es keine Hoffnung?<br>Er: Es gibt Träume.<br><br>Sprecher: Hanna Münch (Schauspielerin, Tänzerin), Clemens Grote (Schauspieler)<br>Gesang: Katja Kaufmann<br>Live-Mixing: Klaus Fumy",
				"img": "180802_Seltsame-Liebe_Donnerstags@1x.jpg",
				"thumb": "180802_Seltsame-Liebe_Donnerstags@0.5x.jpg",
				"link": "",
				"price": "Eintritt frei"
		},
		"busSchedule": {
			"to": ["1800","1830","1900","1930","2000","2130","2200", "2230", "2300", "2330"],
			"back": ["1815", "1845", "1915", "1945", "2115", "2145", "2215", "2245", "2315", "2345"]
		}
	}, {
		"active": true,
		"date": "2018-08-09",
		"openingHours": {
			"from": "1800", 
			"to": "2400"
		},
		"eventDescription": {
				"name": "Donnerstags auf der Burg - Roadstring Army, Kosmo, Moltke & Mörike",
				"type": "Konzert",
				"host": "Studentencafé und KunstWerk e.V. (feat. AKK)",
				"logos": [],
				"from": "2000",
				"to": "2300",
				"description": "ROADSTRING ARMY: Gitarren, ein Holzsaxofon und Stimmen so rau wie das Kopfsteinpflaster, das sie geboren hat. Songs zwischen Pop, Rock und Blues, mit denen sie das Publikum quer durch die Republik begeistern. Die Jungs sind auf der Überholspur.<br><br>MOLTKE & MÖRIKE sind die 3 Typen aus Langenau, die darüber singen, wie man Mädels abcheckt und eine gewisse Mary Jane wieder loswird. Das normale Tagesprogramm also, bis auf die vegane Domina. Und das alles als Alternative Rock mit Punk und Indie.<br><br>KOSMO haben nicht die große Message, aber eine klare Botschaft. Die Band spielt die Musik, die sie in dieser Welt vermisst, und zwar mit deutschen Texten.",
				"img": "180809_Roadstring-Army_Donnerstags@1x.jpg",
				"thumb": "180809_Roadstring-Army_Donnerstags@0.5x.jpg",
				"link": "",
				"price": "Eintritt frei"
		},
		"busSchedule": {
			"to": ["1800","1830","1900","1930","2000","2130","2200", "2230", "2300", "2330"],
			"back": ["1815", "1845", "1915", "1945", "2115", "2145", "2215", "2245", "2315", "2345"]
		}
	}, {
		"active": true,
		"date": "2018-08-10",
		"openingHours": {
			"from": "1800", 
			"to": "2400"
		},
		"eventDescription": {
				"name": "Kimber | Home Selection",
				"type": "Musik",
				"host": "Wilhelmsbar",
				"logos": [],
				"from": "1900",
				"to": "2400",
				"description": "Kimber ist mittlerweile ein echtes Urgestein der Ulmer Musikszene und nun schon seit rund 20 Jahren als DJ aktiv. Musikalisch ist er eigentlich hauptsächlich in elektronischen Welten zu Hause, wird aber exklusiv für die Wilhelmsbar, seine @home Musiksammlung auspacken und Euch mit feinsten Beats von Soul über Jazz bis hin zu Beatmaker-HipHop und intelligent Drum’n’Bass versorgen. Also wir können es kaum erwarten!",
				"img": "180810_Kimber@1x.jpg",
				"thumb": "180810_Kimber@0.5x.jpg",
				"link": "",
				"price": "Eintritt frei"
		},
		"busSchedule": {
			"to": [],
			"back": []
		}
	},
	{
		"active": true,
		"date": "2018-08-11",
		"openingHours": {
			"from": "1800", 
			"to": "2400"
		},
		"eventDescription": {
				"name": "Kinderburgfestspiele",
				"type": "Kunst",
				"host": "Neuer Saarbrücker Kunstverein",
				"logos": [],
				"from": "1300",
				"to": "1800",
				"description": "Die Kinderburgfestspiele sind fester Bestandteil der Veranstaltungsreihe Burgfestspiele im Rahmen des Pop Up Space Wilhelmsburg. Den teilnehmenden Kindern soll die Möglichkeit geboten werden 24 Stunden mit dem Kunstverein die Burgfestspiele zu erleben. Hierzu wird ein Kinderprogramm mit Spielen und Workshops angeboten. So soll eine spielerische Herangehensweise an die zeitgenössische Kunst anhand der zu diesem Zeitpunkt laufenden Ausstellung vermittelt werden.<br><br><ul><li>Altersbeschränkung: 6 – 12 Jahre</li><li>Betreuung durch geschultes Personal</li><li>Anmeldung per Mail an info@neuersaarbrueckerkunstverein.de</li></ul><br><br>Der Neue Saarbrücker Kunstverein hat für den Pop Up Space der Wilhelmsburg in Ulm ein Konzept mit dem Titel „Burgfestspiele“ entwickelt.<br><br>Vom 01.08.2018 bis zum 30.09.2018 beziehen die aktiven Mitglieder des Neuen Saarbrücker Kunstvereins die Wilhelmsburg. Während der Monate August und September sieht der Neue Saarbrücker Kunstverein es vor, in der Stadt Ulm zu wohnen und die Burg intensiv zu beleben.<br><br>Über den Zeitraum von acht Wochen und in vier öffentlichen Veranstaltungen werden geladene Kunstschaffende gemeinsam mit dem Neuen Saarbrücker Kunstverein die Festung erkunden.<br><br>In einem vorgesehenen Rhythmus von zwei Wochen wird mit wechselnder Belegschaft die Festung neu gedacht. Und so der geistigen Verfestigung entgegengewirkt.<br><br>In dieser Zeit werden auch die Vorbereitungen für den Empfang des Publikums getroffen, die schließlich in einem sonntäglichen Programm, „den Burgfestspielen“, münden.<br><br>Gemeinsam geht es den aktiven Mitgliedern, Freunden des Vereins und geladenen Gästen, in erster Linie darum, Zeit miteinander zu verbringen . Während dieser Zeit hat jeder der Beteiligten die Freiheit das zu tun/ untersuchen/ experimentieren/ herausfordern/ schmecken/ hören/ sehen, worauf sie oder er Lust haben. Aus dieser Freiheit entwickelt sich ein Selbstverständnis, welches in die Entfaltung von Projekten mündet, die schließlich dem Publikum zugänglich gemacht werden. Durch diese Spontanität wachsen und entwickeln sich Formate, welche im Vorhinein nicht planbar sind.<br><br>Die geladenen Künstlerinnen und Künstler und deren Konzepte stehen im Fokus der öffentlichen Veranstaltungen. Diese werden Formen wie Performances, Ausstellungen, Aktionen und Spaziergänge annehmen und jeden zweiten Sonntag präsentiert. Neben diesem Hauptprogramm gibt es kleine Projekte der aktiven Mitglieder und der Freunde des Vereins, die ebenfalls Einzug in die Veranstaltung finden werden.<br><br>Infos zum Neuen Saarbrücker Kunstverein gibt es hier <a href='http://www.neuersaarbrueckerkunstverein.de/programm'>www.neuersaarbrueckerkunstverein.de/programm</a> oder hier <a href='https://www.facebook.com/Neuer-Saarbr%C3%BCcker-Kunstverein-141052805956661/'>www.facebook.com/Neuer-Saarbrücker-Kunstverein-141052805956661/</a>",
				"img": "180811_Kinderburgfestspiele@1x.jpg",
				"thumb": "180811_Kinderburgfestspiele@0.5x.jpg",
				"link": "",
				"price": "Eintritt frei"
		},
		"busSchedule": {
			"to": [],
			"back": []
		}
	}, {
		"active": true,
		"date": "2018-08-12",
		"openingHours": {
			"from": "1500", 
			"to": "1800"
		},
		"eventDescription": {
				"name": "Burgfestspiele",
				"type": "Kunst",
				"host": "Neuer Saarbrücker Kunstverein",
				"logos": [],
				"from": "1300",
				"to": "1700",
				"description": "Der Neue Saarbrücker Kunstverein hat für den Pop Up Space der Wilhelmsburg in Ulm ein Konzept mit dem Titel „Burgfestspiele“ entwickelt.<br><br>Vom 01.08.2018 bis zum 30.09.2018 beziehen die aktiven Mitglieder des Neuen Saarbrücker Kunstvereins die Wilhelmsburg. Während der Monate August und September sieht der Neue Saarbrücker Kunstverein es vor, in der Stadt Ulm zu wohnen und die Burg intensiv zu beleben.<br><br>Über den Zeitraum von acht Wochen und in vier öffentlichen Veranstaltungen werden geladene Kunstschaffende gemeinsam mit dem Neuen Saarbrücker Kunstverein die Festung erkunden.<br><br>In einem vorgesehenen Rhythmus von zwei Wochen wird mit wechselnder Belegschaft die Festung neu gedacht. Und so der geistigen Verfestigung entgegengewirkt.<br><br>In dieser Zeit werden auch die Vorbereitungen für den Empfang des Publikums getroffen, die schließlich in einem sonntäglichen Programm, „den Burgfestspielen“, münden.<br><br>Gemeinsam geht es den aktiven Mitgliedern, Freunden des Vereins und geladenen Gästen, in erster Linie darum, Zeit miteinander zu verbringen . Während dieser Zeit hat jeder der Beteiligten die Freiheit das zu tun/ untersuchen/ experimentieren/ herausfordern/ schmecken/ hören/ sehen, worauf sie oder er Lust haben. Aus dieser Freiheit entwickelt sich ein Selbstverständnis, welches in die Entfaltung von Projekten mündet, die schließlich dem Publikum zugänglich gemacht werden. Durch diese Spontanität wachsen und entwickeln sich Formate, welche im Vorhinein nicht planbar sind.<br><br>Die geladenen Künstlerinnen und Künstler und deren Konzepte stehen im Fokus der öffentlichen Veranstaltungen. Diese werden Formen wie Performances, Ausstellungen, Aktionen und Spaziergänge annehmen und jeden zweiten Sonntag präsentiert. Neben diesem Hauptprogramm gibt es kleine Projekte der aktiven Mitglieder und der Freunde des Vereins, die ebenfalls Einzug in die Veranstaltung finden werden.<br><br>Infos zum Neuen Saarbrücker Kunstverein gibt es hier <a href='http://www.neuersaarbrueckerkunstverein.de/programm'>www.neuersaarbrueckerkunstverein.de/programm</a> oder hier <a href='https://www.facebook.com/Neuer-Saarbr%C3%BCcker-Kunstverein-141052805956661/'>www.facebook.com/Neuer-Saarbrücker-Kunstverein-141052805956661/</a>",
				"img": "180812_Burgfestspiele@1x.jpg",
				"thumb": "180812_Burgfestspiele@0.5x.jpg",
				"link": "",
				"price": "Eintritt frei"
		},
		"busSchedule": {
			"to": ["1200","1230","1300", "1330","1400","1530","1600","1630","1700","1730"],
			"back": ["1215","1245","1315","1345","1515","1545","1615","1645","1715","1745"]
		}
	}, {
		"active": true,
		"date": "2018-08-16",
		"openingHours": {
			"from": "1800", 
			"to": "2400"
		},
		"eventDescription": {
				"name": "Donnerstags auf der Burg - “Auf Reisen”",
				"type": "Lyrik & Musik",
				"host": "Ulmer Autoren e.V. und KunstWerk e.V. (feat. AKK)",
				"logos": [],
				"from": "2000",
				"to": "2300",
				"description": "Marco Kerler ist Huckleberry Finn. In seinen Gedichten treibt er von einem Ufer zum nächsten, erzählt von Sehnsucht, der Liebe und von Heimat.<br><br>Auf seinen Reisen begleitet ihn Manuel Stahl alias Peter Pan, der mit Loopstation und Beatbox Klangflächen erschafft, die in Nimmerland entstanden sein könnten.<br><br>Ein weiterer Reisebegleiter ist Reinhard Köhler. Er hat das Aussehen eines Long John Silvers, doch in seinem Herz schlummert der Junge Jim Hawkins. Sein Bass dröhnt wie Kanonenschläge über die Burg, bleibt cool und gelassen, lässt zum Takt mitwippen.",
				"img": "180816_AufReisen_Donnerstags@1x.jpg",
				"thumb": "180816_AufReisen_Donnerstags@0.5x.jpg",
				"link": "",
				"price": "Eintritt frei"
		},
		"busSchedule": {
			"to": ["1800","1830","1900","1930","2000","2130","2200", "2230", "2300", "2330"],
			"back": ["1815", "1845", "1915", "1945", "2115", "2145", "2215", "2245", "2315", "2345"]
		}
	}, {
		"active": true,
		"date": "2018-08-23",
		"openingHours": {
			"from": "1800", 
			"to": "2400"
		},
		"eventDescription": {
				"name": "HEYOKAs Wunschmaschine und Calico Rose",
				"type": "Jazzkonzert",
				"host": "Heyoka Theater e.V. und KunstWerk e.V. (feat. AKK)",
				"logos": [],
				"from": "2000",
				"to": "2300",
				"description": "Die einen sind seit gestern aus dem Urlaub zurück, die anderen fahren morgen los - eine perfekte Gelegenheit, sich in der Mitte der Sommerferien auf der Wilhelmsburg zu treffen, Schönes auszutauschen, Gutes zu wünschen und der Musik von Calico Rose zu lauschen. Jazzy Tunes und Heyokas neue Wunschmaschine - wir lassen uns überraschen, wie das zusammengeht.<br><br>Calico Rose sind:<br><br><ul><li>Klaus Huber: Piano</li><li>Daniel Köhl: Saxophon</li><li>Martin Höchtl: Schlagzeug</li><li>Alexander Jassner: Bass</li></ul>",
				"img": "180823_Heyoka_Donnerstags@1x.jpg",
				"thumb": "180823_Heyoka_Donnerstags@0.5x.jpg",
				"link": "",
				"price": "Eintritt frei"
		},
		"busSchedule": {
			"to": ["1800","1830","1900","1930","2000","2130","2200", "2230", "2300", "2330"],
			"back": ["1815", "1845", "1915", "1945", "2115", "2145", "2215", "2245", "2315", "2345"]
		}	
	},
	{
		"active": true,
		"date": "2018-08-24",
		"openingHours": {
			"from": "1800", 
			"to": "2400"
		},
		"eventDescription": {
				"name": "Kimber | Diggin' Deeper",
				"type": "Musik",
				"host": "Wilhelmsbar",
				"logos": [],
				"from": "1900",
				"to": "2400",
				"description": "Nach seinem astreinen Debut in der Wilhelmsbar vor ein paar Wochen freuen wir uns sehr darauf, Marco Iaconeasy aka Kimber ein weiteres Mal auf unserer Bühne zu sehen. Die neue Selection - die unter dem Motto „Diggin Deeper“ steht – knüpft nahtlos an der „Home Selection“ an, bei der Kimber sich aus seinen eigentlichen heimischen musikalischen Gefilden entfernt und Euch und uns exklusiv den Sound präsentiert, der sonst nur auf seinem Walkman oder in seinem Wohnzimmer läuft. Wir freuen und auf einen weiteren schönen Abend auf der Burg.",
				"img": "180824_Kimber@1x.jpg",
				"thumb": "180824_Kimber@0.5x.jpg",
				"link": "",
				"price": "Eintritt frei"
		},
		"busSchedule": {
			"to": [],
			"back": []
		}
	},
	{
		"active": true,
		"date": "2018-08-25",
		"openingHours": {
			"from": "1800", 
			"to": "2400"
		},
		"eventDescription": {
				"name": "Soul a gogo & more",
				"type": "Musik",
				"host": "Wilhelmsbar",
				"logos": [],
				"from": "1900",
				"to": "2400",
				"description": "Ladies and Gentleman,<br><br>wir sind zutiefst geehrt Euch mitteilen zu dürfen, dass wir DJ Bore vom Soundcircus Ulm - eines der Urgesteine der Ulmer Plattenverlegerszene - für einen Abend unter dem Motto: „SOUL A GOGO & MORE“ voller musikalischer Delikatessen für Euch gewinnen konnten.<br><br>Wir freuen uns wie Bolle auf Samstag, den 25.08.2018, an dem das Team von Damn Burger für das kulinarische Backup sorgen wird.",
				"img": "180825_DJBore@0.5x.jpg",
				"thumb": "180825_DJBore@0.5x.jpg",
				"link": "",
				"price": "Eintritt frei"
		},
		"busSchedule": {
			"to": [],
			"back": []
		}
	},
	{
		"active": true,
		"date": "2018-08-26",
		"openingHours": {
			"from": "1500", 
			"to": "1800"
		},
		"eventDescription": {
				"name": "Burgfestspiele",
				"type": "Kunst",
				"host": "Neuer Saarbrücker Kunstverein",
				"logos": [],
				"from": "1300",
				"to": "1500",
				"description": "Der Neue Saarbrücker Kunstverein hat für den Pop Up Space der Wilhelmsburg in Ulm ein Konzept mit dem Titel „Burgfestspiele“ entwickelt.<br><br>Vom 01.08.2018 bis zum 30.09.2018 beziehen die aktiven Mitglieder des Neuen Saarbrücker Kunstvereins die Wilhelmsburg. Während der Monate August und September sieht der Neue Saarbrücker Kunstverein es vor, in der Stadt Ulm zu wohnen und die Burg intensiv zu beleben.<br><br>Über den Zeitraum von acht Wochen und in vier öffentlichen Veranstaltungen werden geladene Kunstschaffende gemeinsam mit dem Neuen Saarbrücker Kunstverein die Festung erkunden.<br><br>In einem vorgesehenen Rhythmus von zwei Wochen wird mit wechselnder Belegschaft die Festung neu gedacht. Und so der geistigen Verfestigung entgegengewirkt.<br><br>In dieser Zeit werden auch die Vorbereitungen für den Empfang des Publikums getroffen, die schließlich in einem sonntäglichen Programm, „den Burgfestspielen“, münden.<br><br>Gemeinsam geht es den aktiven Mitgliedern, Freunden des Vereins und geladenen Gästen, in erster Linie darum, Zeit miteinander zu verbringen . Während dieser Zeit hat jeder der Beteiligten die Freiheit das zu tun/ untersuchen/ experimentieren/ herausfordern/ schmecken/ hören/ sehen, worauf sie oder er Lust haben. Aus dieser Freiheit entwickelt sich ein Selbstverständnis, welches in die Entfaltung von Projekten mündet, die schließlich dem Publikum zugänglich gemacht werden. Durch diese Spontanität wachsen und entwickeln sich Formate, welche im Vorhinein nicht planbar sind.<br><br>Die geladenen Künstlerinnen und Künstler und deren Konzepte stehen im Fokus der öffentlichen Veranstaltungen. Diese werden Formen wie Performances, Ausstellungen, Aktionen und Spaziergänge annehmen und jeden zweiten Sonntag präsentiert. Neben diesem Hauptprogramm gibt es kleine Projekte der aktiven Mitglieder und der Freunde des Vereins, die ebenfalls Einzug in die Veranstaltung finden werden.<br><br>Infos zum Neuen Saarbrücker Kunstverein gibt es hier <a href='http://www.neuersaarbrueckerkunstverein.de/programm'>www.neuersaarbrueckerkunstverein.de/programm</a> oder hier <a href='https://www.facebook.com/Neuer-Saarbr%C3%BCcker-Kunstverein-141052805956661/'>www.facebook.com/Neuer-Saarbrücker-Kunstverein-141052805956661/</a>",
				"img": "180825_Burgfestspiele@1x.png",
				"thumb": "180825_Burgfestspiele@0.5x.png",
				"link": "",
				"price": "Eintritt frei"
		},
		"busSchedule": {
			"to": ["1200","1230","1300", "1330","1400","1530","1600","1630","1700","1730"],
			"back": ["1215","1245","1315","1345","1515","1545","1615","1645","1715","1745"]
		}
	},
	{
		"active": true,
		"date": "2018-08-30",
		"openingHours": {
			"from": "1800", 
			"to": "2400"
		},
		"eventDescription": {
				"name": "Donnerstags auf der Burg - “Der illustrierte Mann”",
				"type": "Literatur, Musik, Tanz",
				"host": "Übermorgenwelt e.V. und KunstWerk e.V. (feat. AKK)",
				"logos": [],
				"from": "2000",
				"to": "2300",
				"description": "Ray Bradbury wird als Meister der Science-Fiction-Literatur bezeichnet, er schrieb beispielsweise den Roman „Fahrenheit 451“, der später von François Truffaut verfilmt wurde. Heute aber geht es um „Der illustrierte Mann“. Verbunden durch eine knappe Rahmenhandlung präsentiert der preisgekrönte Band 16 Kurzgeschichten: unheimliche, erschreckende und faszinierende. Und wir wollen diese 16 Geschichten in einer losen Veranstaltungsreihe an unterschiedlichen Orten vorstellen, jeweils mit ungewöhnlichem und spannendem Rahmenprogramm mit Musik, Tanz und anderen Künsten. Den Auftakt dazu macht der heutige Abend in der Wilhelmsburg, mit Live-Musik und einer Tanzperformance von Kathrin Knöpfle. Lasst euch überraschen!",
				"img": "180830_DerIllustrierteMann_Donnerstags@1x.jpg",
				"thumb": "180830_DerIllustrierteMann_Donnerstags@0.5x.jpg",
				"link": "",
				"price": "Eintritt frei"
		},
		"busSchedule": {
			"to": ["1800","1830","1900","1930","2000","2130","2200", "2230", "2300", "2330"],
			"back": ["1815", "1845", "1915", "1945", "2115", "2145", "2215", "2245", "2315", "2345"]
		}
	},
	{
		"active": true,
		"date": "2018-08-31",
		"openingHours": {
			"from": "1800", 
			"to": "2400"
		},
		"eventDescription": {
				"name": "Hello weekend yoga mit Steffi",
				"type": "Yoga",
				"host": "Wilhelmsbar",
				"logos": [],
				"from": "1830",
				"to": "2000",
				"description": "Steffi hat die Angewohnheit sich an schönen Plätzen zu fragen, wie es wohl wäre hier Yoga zu praktizieren. Und genau so entstand die Idee drei Dinge miteinander zu kombinieren, die sie liebt: Yoga, Freitagabend und das beides an einem schönen Platz!<br><br>Yoga ist für Steffi eine Herzensangelegenheit, denn mit Yoga können wir uns und unseren Körper, unsere Gedanken und Emotionen besser wahrnehmen können und uns vielleicht auch immer häufiger von Konditionierungen lösen. Yoga is an inside-job: Dein Inneres ist so viel wichtiger als die äußere Form. Yoga darf Spaß machen, Yoga darf uns auch zum Lachen bringen - oder man könnte sagen: Es bringt uns zu unserem wirklichen Ich zurück.<br><br>Also, markiere dir den Termin fest in den Kalender, bring deine Liebsten und gute Laune mit, super gerne auch deine eigene Matte und nach der Yogastunde noch Zeit für ein gemeinsames Getränk, um das Wochenende mit offenen Armen zu begrüßen! Das wird wunderbar in der Wilhelmsbar",
				"img": "180831_Hello-Weekend-Yoga@1x.jpg",
				"thumb": "180831_Hello-Weekend-Yoga@0.5x.jpg",
				"link": "",
				"price": "Eintritt frei"
		},
		"busSchedule": {
			"to": [],
			"back": []
		}
	},
	{
		"active": true,
		"date": "2018-09-01",
		"openingHours": {
			"from": "1800", 
			"to": "2400"
		},
		"eventDescription": {
				"name": "20 Jahre PORNOPHON",
				"type": "Musik",
				"host": "Wilhelmsbar",
				"logos": [],
				"from": "2000",
				"to": "2400",
				"description": "1998: Wir starten in einer Zeit, in der man sich noch mit Tapes um Konzerte beworben hat. Festnetztelefone, von Hand zusammengeschnippelte kopierte Schwarzweiss-Flyer und per Post verschickte Kassetten...<br><br>2018: Zu unserem runden Geburtstag schlagen wir den analogen Bogen und veröffentlichen unsere erste LP auf Vinyl - Musik hört man wieder so wie Mama in den 1960ern...<br><br>Ein ganz besonderer Veranstaltungsort verlangt ganz besondere Gäste: In den wunderschönen Innenhof der Wilhelmsburg haben wir uns die Kings of ASSROCK und die Queens of FUCK'N'ROLL eingeladen:<br><br><ul><li>ca 21h EMANZENPANZER - FUCK'N'ROLL (Ulm)</li><li>ca 22h THE ASSTEREOIDIOTS - SUPERASSROCK (Wodenau a.d.H.)</li><li>ca 23h PORNOPHON - LO FI OUTDOOR TERROR (Ulm)</li></ul><br>Für dieses außergewöhnliche Jubiläum hat Pornophon übrigens extra für euch den Shuttle-Bus gebucht, der euch bequem von der neuen Mitte an die Burg und zurück fährt.<br><br>Außerdem wird der Hemperium-Food-Truck für leckeres Essen sorgen!",
				"img": "180901_Pornophon@1x.jpg",
				"thumb": "180901_Pornophon@0.5x.jpg",
				"link": "",
				"price": "Eintritt frei"
		},
		"busSchedule": {
			"to": ["1800","1830","1900","1930","2000","2130","2200", "2230", "2300", "2330"],
			"back": ["1815", "1845", "1915", "1945", "2115", "2145", "2215", "2245", "2315", "2345"]
		}
	},
	{
		"active": true,
		"date": "2018-09-06",
		"openingHours": {
			"from": "1800", 
			"to": "2400"
		},
		"eventDescription": {
				"name": "Donnerstags auf der Burg - “Mein langsamer Ferrari”",
				"type": "Lyrik & Musik",
				"host": "Stadtbibliothek und KunstWerk e.V. (feat. AKK)",
				"logos": [],
				"from": "2000",
				"to": "2300",
				"description": "Der Neu-Ulmer Schriftsteller Jörg Neugebauer hat sich längst einen Namen gemacht. Seine Poesie entfaltet ihre Wirkung oft mit einem Verzögerungseffekt, der mal eine Sekunde oder auch ein paar Tage dauern kann. Anfangs wirken die Texte ein bisschen schlicht oder banal, aber dann kriecht die Einsicht um die Ecke: Der Mann tarnt sich mit vermeintlicher Einfachheit und schreibt oft mit einem ganz eigenen, eigenartig-schrägen Humor, der sich dann potenziert zur Entfaltung bringt, wenn man Neugebauer zuhören darf. Verschmitzt platziert er seine Zeitbomben in den Gehörgängen des Publikums. Aber keine Angst, das tut nicht weh, sondern zaubert dem erkennenden Zuhörer ein Lächeln ins Gesicht.<br><br>Nicht entgehen lassen sollte man sich jedenfalls die Gelegenheit, ihn live auf der Bühne zu sehen. Im heutigen Programm sind die Texte mit Musik arrangiert. Reinhard Köhler versieht die Gedichte mit oft leisen, poetischen Klangbildern und Soundcollagen. Dabei arbeitet er nicht nur mit tiefen Tönen auf seinem Hauptinstrument E-Bass, sondern setzt zusätzlich sparsame Elektronik genauso ein wie exotisch-seltene Musikinstrumente und Alltagsgegenständen, denen er wunderliche Töne entlockt.<br><br>Eins jedenfalls ist sicher: Im Programm „Mein langsamer Ferrari“ gibt es kein Motoren-Gedröhn.",
				"img": "180906_Mein-langsamer-Ferrari_Donnerstags@1x.jpg",
				"thumb": "180906_Mein-langsamer-Ferrari_Donnerstags@0.5x.jpg",
				"link": "",
				"price": "Eintritt frei"
		},
		"busSchedule": {
			"to": ["1800","1830","1900","1930","2000","2130","2200", "2230", "2300", "2330"],
			"back": ["1815", "1845", "1915", "1945", "2115", "2145", "2215", "2245", "2315", "2345"]
		}
	}, {
		"active": true,
		"date": "2018-09-08",
		"openingHours": {
			"from": "1800", 
			"to": "2400"
		},
		"eventDescription": {
				"name": "Das Polygonalsystem",
				"type": "Performance",
				"host": "Ines Fiegert, Jeremias Heppeler und Christof Heppeler",
				"logos": [],
				"from": "1800",
				"to": "1900",
				"description": "Unter dem Titel \"Das Polygonalsystem\" bespielt das Künstler-Trio ein Stockwerk des Flankturms. Dieser einzigartige und unberührte Raum wird von Fiegert mit einem Netz umwoben, welches um visuelle und akustische Elemente erweitert wird. Die Gäste können sich selbst im Netz bewegen und Klänge erzeugen – so entsteht ein Hybrid aus Ausstellung, Performance und interaktiver Installation.",
				"img": "180908_DasPolygonalsystem@1x.png",
				"thumb": "180908_DasPolygonalsystem@0.5x.png",
				"link": "",
				"price": "Eintritt frei"
		},
		"busSchedule": {
			"to": ["1800","1830","1900","1930","2000","2130","2200", "2230", "2300", "2330"],
			"back": ["1815", "1845", "1915", "1945", "2115", "2145", "2215", "2245", "2315", "2345"]
		}
	},  {
		"active": true,
		"date": "2018-09-09",
		"openingHours": {
			"from": "1500", 
			"to": "1800"
		},
		"eventDescription": {
				"name": "Burgfestspiele",
				"type": "Kunst",
				"host": "Neuer Saarbrücker Kunstverein",
				"logos": [],
				"from": "1300",
				"to": "1500",
				"description": "Der Neue Saarbrücker Kunstverein hat für den Pop Up Space der Wilhelmsburg in Ulm ein Konzept mit dem Titel „Burgfestspiele“ entwickelt.<br><br>Vom 01.08.2018 bis zum 30.09.2018 beziehen die aktiven Mitglieder des Neuen Saarbrücker Kunstvereins die Wilhelmsburg. Während der Monate August und September sieht der Neue Saarbrücker Kunstverein es vor, in der Stadt Ulm zu wohnen und die Burg intensiv zu beleben.<br><br>Über den Zeitraum von acht Wochen und in vier öffentlichen Veranstaltungen werden geladene Kunstschaffende gemeinsam mit dem Neuen Saarbrücker Kunstverein die Festung erkunden.<br><br>In einem vorgesehenen Rhythmus von zwei Wochen wird mit wechselnder Belegschaft die Festung neu gedacht. Und so der geistigen Verfestigung entgegengewirkt.<br><br>In dieser Zeit werden auch die Vorbereitungen für den Empfang des Publikums getroffen, die schließlich in einem sonntäglichen Programm, „den Burgfestspielen“, münden.<br><br>Gemeinsam geht es den aktiven Mitgliedern, Freunden des Vereins und geladenen Gästen, in erster Linie darum, Zeit miteinander zu verbringen . Während dieser Zeit hat jeder der Beteiligten die Freiheit das zu tun/ untersuchen/ experimentieren/ herausfordern/ schmecken/ hören/ sehen, worauf sie oder er Lust haben. Aus dieser Freiheit entwickelt sich ein Selbstverständnis, welches in die Entfaltung von Projekten mündet, die schließlich dem Publikum zugänglich gemacht werden. Durch diese Spontanität wachsen und entwickeln sich Formate, welche im Vorhinein nicht planbar sind.<br><br>Die geladenen Künstlerinnen und Künstler und deren Konzepte stehen im Fokus der öffentlichen Veranstaltungen. Diese werden Formen wie Performances, Ausstellungen, Aktionen und Spaziergänge annehmen und jeden zweiten Sonntag präsentiert. Neben diesem Hauptprogramm gibt es kleine Projekte der aktiven Mitglieder und der Freunde des Vereins, die ebenfalls Einzug in die Veranstaltung finden werden.<br><br>Infos zum Neuen Saarbrücker Kunstverein gibt es hier <a href='http://www.neuersaarbrueckerkunstverein.de/programm'>www.neuersaarbrueckerkunstverein.de/programm</a> oder hier <a href='https://www.facebook.com/Neuer-Saarbr%C3%BCcker-Kunstverein-141052805956661/'>www.facebook.com/Neuer-Saarbrücker-Kunstverein-141052805956661/</a>",
				"img": "180909_Burgfestspiele@1x.png",
				"thumb": "180909_Burgfestspiele@0.5x.png",
				"price": "Eintritt frei"
		},
		"busSchedule": {
			"to": ["1200","1230","1300", "1330","1400","1530","1600","1630","1700","1730"],
			"back": ["1215","1245","1315","1345","1515","1545","1615","1645","1715","1745"]
		}
	}, {
		"active": true,
		"date": "2018-09-13",
		"openingHours": {
			"from": "1800", 
			"to": "2400"
		},
		"eventDescription": {
				"name": "Donnerstags auf der Burg - Impro-Comedy-Mix mit den Showbuddies",
				"type": "Comedy",
				"host": "Ulmer Volkshochschule & Kunstwerk e.V. (feat. AKK)",
				"logos": [],
				"from": "2000",
				"to": "2300",
				"description": "Spontan und interaktiv werden die Showbuddies nach Ihren Vorgaben den Abend gestalten, denn das Publikum ist Inspiration für einen unvergesslichen Abend.<br><br>Mit Fantasie und Einfallsreichtum wird die Gruppe Sie in spannende Geschichten entführen und den neuesten Sommerhit zum Besten geben.<br><br>Von Drama bis Musical, verrückte Poeten und skurrile Helden …. Jeder Abend der Showbuddies ist ein Feuerwerk an Premieren. Verpassen Sie nicht die Premiere auf der Wilhelmsburg!",
				"img": "180913_ImproComedy@1x.jpg",
				"thumb": "180913_ImproComedy@0.5x.jpg",
				"link": "",
				"price": "Eintritt frei"
		},
		"busSchedule": {
			"to": ["1800","1830","1900","1930","2000","2130","2200", "2230", "2300", "2330"],
			"back": ["1815", "1845", "1915", "1945", "2115", "2145", "2215", "2245", "2315", "2345"]
		}
	}, {
		"active": true,
		"date": "2018-09-20",
		"openingHours": {
			"from": "1800", 
			"to": "2400"
		},
		"eventDescription": {
				"name": "Donnerstags auf der Burg - „Es lebe die Freiheit – zum 100. Geburtstag von Hans Scholl“",
				"type": "Theater",
				"host": "theaterWerkstatt e.V. und KunstWerk e.V. (feat. AKK)",
				"logos": [],
				"from": "2000",
				"to": "2300",
				"description": "Zum 100. Geburtstag von Hans Scholl am 22. September 2018 produziert die theaterWerkstatt Ulm derzeit einen Theaterabend, in dessen Mittelpunkt jener junge Mann steht, dessen Name neben dem seiner Schwester Sophie zum Inbegriff des Widerstands gegen Hitlerdeutschland geworden ist.<br><br>In neun Spielszenen, verfasst von Elvira Lauscher, Jörg Neugebauer und Thomas Laengerer, werden entscheidende Stationen seines Wegs gezeigt, dabei sind auch Mitstreiter und Weggefährten wie Alexander Schmorell, Inge und Sophie Scholl.<br><br>Alternierend zu den Scholl-Szenen gibt es Sequenzen aus Brechts „Furcht und Elend des dritten Reiches“, die das gesellschaftliche Umfeld zeigen, die Bespitzelung, die allgegenwärtige Angst, den alltäglichen Verrat und den Zwang, alles aufzugeben, um wenigstens das eigene Leben zu retten.",
				"img": "180920_Scholl@1x.jpg",
				"thumb": "180920_Scholl@0.5x.jpg",
				"link": "",
				"price": "Eintritt frei"
		},
		"busSchedule": {
			"to": ["1800","1830","1900","1930","2000","2130","2200", "2230", "2300", "2330"],
			"back": ["1815", "1845", "1915", "1945", "2115", "2145", "2215", "2245", "2315", "2345"]
		}
	},  {
		"active": true,
		"date": "2018-09-23",
		"openingHours": {
			"from": "1500", 
			"to": "1800"
		},
		"eventDescription": {
				"name": "Burgfestspiele",
				"type": "Kunst",
				"host": "Neuer Saarbrücker Kunstverein",
				"logos": [],
				"from": "1300",
				"to": "1500",
				"description": "Der Neue Saarbrücker Kunstverein hat für den Pop Up Space der Wilhelmsburg in Ulm ein Konzept mit dem Titel „Burgfestspiele“ entwickelt.<br><br>Vom 01.08.2018 bis zum 30.09.2018 beziehen die aktiven Mitglieder des Neuen Saarbrücker Kunstvereins die Wilhelmsburg. Während der Monate August und September sieht der Neue Saarbrücker Kunstverein es vor, in der Stadt Ulm zu wohnen und die Burg intensiv zu beleben.<br><br>Über den Zeitraum von acht Wochen und in vier öffentlichen Veranstaltungen werden geladene Kunstschaffende gemeinsam mit dem Neuen Saarbrücker Kunstverein die Festung erkunden.<br><br>In einem vorgesehenen Rhythmus von zwei Wochen wird mit wechselnder Belegschaft die Festung neu gedacht. Und so der geistigen Verfestigung entgegengewirkt.<br><br>In dieser Zeit werden auch die Vorbereitungen für den Empfang des Publikums getroffen, die schließlich in einem sonntäglichen Programm, „den Burgfestspielen“, münden.<br><br>Gemeinsam geht es den aktiven Mitgliedern, Freunden des Vereins und geladenen Gästen, in erster Linie darum, Zeit miteinander zu verbringen . Während dieser Zeit hat jeder der Beteiligten die Freiheit das zu tun/ untersuchen/ experimentieren/ herausfordern/ schmecken/ hören/ sehen, worauf sie oder er Lust haben. Aus dieser Freiheit entwickelt sich ein Selbstverständnis, welches in die Entfaltung von Projekten mündet, die schließlich dem Publikum zugänglich gemacht werden. Durch diese Spontanität wachsen und entwickeln sich Formate, welche im Vorhinein nicht planbar sind.<br><br>Die geladenen Künstlerinnen und Künstler und deren Konzepte stehen im Fokus der öffentlichen Veranstaltungen. Diese werden Formen wie Performances, Ausstellungen, Aktionen und Spaziergänge annehmen und jeden zweiten Sonntag präsentiert. Neben diesem Hauptprogramm gibt es kleine Projekte der aktiven Mitglieder und der Freunde des Vereins, die ebenfalls Einzug in die Veranstaltung finden werden.<br><br>Infos zum Neuen Saarbrücker Kunstverein gibt es hier <a href='http://www.neuersaarbrueckerkunstverein.de/programm'>www.neuersaarbrueckerkunstverein.de/programm</a> oder hier <a href='https://www.facebook.com/Neuer-Saarbr%C3%BCcker-Kunstverein-141052805956661/'>www.facebook.com/Neuer-Saarbrücker-Kunstverein-141052805956661/</a>",
				"img": "180923_Burgfestspiele@1x.png",
				"thumb": "180923_Burgfestspiele@0.5x.png",
				"link": "",
				"price": "Eintritt frei"
		},
		"busSchedule": {
			"to": ["1200","1230","1300", "1330","1400","1530","1600","1630","1700","1730"],
			"back": ["1215","1245","1315","1345","1515","1545","1615","1645","1715","1745"]
		}
	}, {
		"active": true,
		"date": "2018-09-27",
		"openingHours": {
			"from": "1800", 
			"to": "2400"
		},
		"eventDescription": {
				"name": "Donnerstags auf der Burg - Tee mit Tanten: „Mutter Mund“",
				"type": "Theaterkonzert",
				"host": "Ulmer Volkshochschule und KunstWerk e.V. (feat. AKK)",
				"logos": [],
				"from": "2000",
				"to": "2300",
				"description": "Hier sind sie, die wahren Mütter, die ungeschminkten Heldinnen der Gegenwart, mit versabberten T-Shirts und Augenringen, so tief wie der Mariannengraben.<br><br>In einer schonungslos ehrlichen Revue beweisen diese Mütter, dass ihre Kinder trotzdem das Großartigste sind, was sie jemals gemacht haben, und dass sie mit niemandem tauschen wollen.<br><br>Tee mit Tanten ist eine Theaterband, die etwas weniger singt als spricht, dafür aber voller Innbrunst spielt. Die Band besteht aus professionellen Schauspielerinnen, ambitionierten Amateurinnen und einer Sängerin.<br><br>Man könnte jetzt schreiben, dass Tee mit Tanten bei jedem ihrer Auftritte das Theater neu kreieren, dass sie innovativ, atemberaubend, äußerst witzig, gesellschaftskritisch und unkonventionell in ihren Darbietungen sind. Könnte man alles schreiben… es wäre eine Möglichkeit und vielleicht sogar gerechtfertigt. Letztendlich entscheidet aber das Publikum, was es mit Tee mit Tanten auf sich hat. Eine unumgängliche Tatsache ist aber, dass Tee mit Tanten das Theater genau so spielen, wie sie es selber gerne sehen wollen.",
				"img": "180927_Muttermund@1x.jpg",
				"thumb": "180927_Muttermund@0.5x.jpg",
				"link": "",
				"price": "Eintritt frei"
		},
		"busSchedule": {
			"to": ["1800","1830","1900","1930","2000","2130","2200", "2230", "2300", "2330"],
			"back": ["1815", "1845", "1915", "1945", "2115", "2145", "2215", "2245", "2315", "2345"]
		}
	}, {
		"active": false,
		"date": "2018-10-05",
		"openingHours": {
			"from": "1800", 
			"to": "2400"
		},
		"eventDescription": {
				"name": "Wilhelmsbüro | Creative Space",
				"type": "Creative Space",
				"host": "\"Widerstand und Söhne\" & \"Bootschaft | Büro für Gestaltung\"",
				"logos": [],
				"from": "1800",
				"to": "2000",
				"description": "Im Projekt \"Wilhelmsbüro | Creative Space\" verlegen zwei junge Ulmer Firmen ihren Arbeitsplatz einmal die Woche für zwei Tage (48h) über einen Zeitraum von 5 Wochen in die Wilhelmsburg.  In dieser Zeit gehen sie nicht etwa ihrem normalen Tagesgeschäft nach, sondern widmen sich vorab gestellten und dem Team zuvor unbekannten Aufgaben und Problemstellungen von Ulmer Bürgerinnen und Bürgern. Über eine Online-Plattform hat jeder und jede die Möglichkeit eine Aufgabenstellung einzureichen. In 48 Stunden werden kostenlos Lösungen erarbeitet und anschließend der Öffentlichkeit präsentiert. ",
				"img": "",
				"link": "",
				"price": "Eintritt frei"
		},
		"busSchedule": {
			"to": ["1800","1830","1900","1930","2000","2130","2200", "2230", "2300", "2330"],
			"back": ["1815", "1845", "1915", "1945", "2115", "2145", "2215", "2245", "2315", "2345"]
		}
	}, {
		"active": false,
		"date": "2018-10-12",
		"openingHours": {
			"from": "1800", 
			"to": "2400"
		},
		"eventDescription": {
				"name": "Wilhelmsbüro | Creative Space",
				"type": "Creative Space",
				"host": "\"Widerstand und Söhne\" & \"Bootschaft | Büro für Gestaltung\"",
				"logos": [],
				"from": "1800",
				"to": "2000",
				"description": "Im Projekt \"Wilhelmsbüro | Creative Space\" verlegen zwei junge Ulmer Firmen ihren Arbeitsplatz einmal die Woche für zwei Tage (48h) über einen Zeitraum von 5 Wochen in die Wilhelmsburg.  In dieser Zeit gehen sie nicht etwa ihrem normalen Tagesgeschäft nach, sondern widmen sich vorab gestellten und dem Team zuvor unbekannten Aufgaben und Problemstellungen von Ulmer Bürgerinnen und Bürgern. Über eine Online-Plattform hat jeder und jede die Möglichkeit eine Aufgabenstellung einzureichen. In 48 Stunden werden kostenlos Lösungen erarbeitet und anschließend der Öffentlichkeit präsentiert. ",
				"img": "",
				"link": "",
				"price": "Eintritt frei"
		},
		"busSchedule": {
			"to": ["1800","1830","1900","1930","2000","2130","2200", "2230", "2300", "2330"],
			"back": ["1815", "1845", "1915", "1945", "2115", "2145", "2215", "2245", "2315", "2345"]
		}
	}, {
		"active": false,
		"date": "2018-10-19",
		"openingHours": {
			"from": "1800", 
			"to": "2400"
		},
		"eventDescription": {
				"name": "Wilhelmsbüro | Creative Space",
				"type": "Creative Space",
				"host": "\"Widerstand und Söhne\" & \"Bootschaft | Büro für Gestaltung\"",
				"logos": [],
				"from": "1800",
				"to": "2000",
				"description": "Im Projekt \"Wilhelmsbüro | Creative Space\" verlegen zwei junge Ulmer Firmen ihren Arbeitsplatz einmal die Woche für zwei Tage (48h) über einen Zeitraum von 5 Wochen in die Wilhelmsburg.  In dieser Zeit gehen sie nicht etwa ihrem normalen Tagesgeschäft nach, sondern widmen sich vorab gestellten und dem Team zuvor unbekannten Aufgaben und Problemstellungen von Ulmer Bürgerinnen und Bürgern. Über eine Online-Plattform hat jeder und jede die Möglichkeit eine Aufgabenstellung einzureichen. In 48 Stunden werden kostenlos Lösungen erarbeitet und anschließend der Öffentlichkeit präsentiert. ",
				"img": "",
				"link": "",
				"price": "Eintritt frei"
		},
		"busSchedule": {
			"to": ["1800","1830","1900","1930","2000","2130","2200", "2230", "2300", "2330"],
			"back": ["1815", "1845", "1915", "1945", "2115", "2145", "2215", "2245", "2315", "2345"]
		}
	}, {
		"active": false,
		"date": "2018-10-26",
		"openingHours": {
			"from": "1800", 
			"to": "2400"
		},
		"eventDescription": {
				"name": "Wilhelmsbüro | Creative Space",
				"type": "Creative Space",
				"host": "\"Widerstand und Söhne\" & \"Bootschaft | Büro für Gestaltung\"",
				"logos": [],
				"from": "1800",
				"to": "2000",
				"description": "Im Projekt \"Wilhelmsbüro | Creative Space\" verlegen zwei junge Ulmer Firmen ihren Arbeitsplatz einmal die Woche für zwei Tage (48h) über einen Zeitraum von 5 Wochen in die Wilhelmsburg.  In dieser Zeit gehen sie nicht etwa ihrem normalen Tagesgeschäft nach, sondern widmen sich vorab gestellten und dem Team zuvor unbekannten Aufgaben und Problemstellungen von Ulmer Bürgerinnen und Bürgern. Über eine Online-Plattform hat jeder und jede die Möglichkeit eine Aufgabenstellung einzureichen. In 48 Stunden werden kostenlos Lösungen erarbeitet und anschließend der Öffentlichkeit präsentiert. ",
				"img": "",
				"link": "",
				"price": "Eintritt frei"
		},
		"busSchedule": {
			"to": ["1800","1830","1900","1930","2000","2130","2200", "2230", "2300", "2330"],
			"back": ["1815", "1845", "1915", "1945", "2115", "2145", "2215", "2245", "2315", "2345"]
		}
	}, {
		"active": false,
		"date": "2018-11-02",
		"openingHours": {
			"from": "1800", 
			"to": "2400"
		},
		"eventDescription": {
				"name": "Wilhelmsbüro | Creative Space",
				"type": "Creative Space",
				"host": "\"Widerstand und Söhne\" & \"Bootschaft | Büro für Gestaltung\"",
				"logos": [],
				"from": "1800",
				"to": "2000",
				"description": "Im Projekt \"Wilhelmsbüro | Creative Space\" verlegen zwei junge Ulmer Firmen ihren Arbeitsplatz einmal die Woche für zwei Tage (48h) über einen Zeitraum von 5 Wochen in die Wilhelmsburg.  In dieser Zeit gehen sie nicht etwa ihrem normalen Tagesgeschäft nach, sondern widmen sich vorab gestellten und dem Team zuvor unbekannten Aufgaben und Problemstellungen von Ulmer Bürgerinnen und Bürgern. Über eine Online-Plattform hat jeder und jede die Möglichkeit eine Aufgabenstellung einzureichen. In 48 Stunden werden kostenlos Lösungen erarbeitet und anschließend der Öffentlichkeit präsentiert. ",
				"img": "",
				"link": "",
				"price": "Eintritt frei"
		},
		"busSchedule": {
			"to": ["1800","1830","1900","1930","2000","2130","2200", "2230", "2300", "2330"],
			"back": ["1815", "1845", "1915", "1945", "2115", "2145", "2215", "2245", "2315", "2345"]
		}
	}, {
		"active": false,
		"date": "2018-11-24",
		"openingHours": {
			"from": "1800", 
			"to": "2400"
		},
		"eventDescription": {
				"name": "Fünf Räume - Sieben MusikerInnen",
				"type": "Konzert & Installation",
				"host": "Alan Hilario",
				"logos": [],
				"from": "2000",
				"to": "2200",
				"description": "Alan Hilario präsentiert sein eigens für die Räume der Wilhelmsburg komponiertes Werk der Neuen Musik",
				"img": "",
				"link": "",
				"price": ""
		},
		"busSchedule": {
			"to": ["1800","1830","1900","1930","2000","2130","2200", "2230", "2300", "2330"],
			"back": ["1815", "1845", "1915", "1945", "2115", "2145", "2215", "2245", "2315", "2345"]
		}
	}, {
		"active": false,
		"date": "2018-11-25",
		"openingHours": {
			"from": "1800", 
			"to": "2400"
		},
		"eventDescription": {
				"name": "Fünf Räume - Sieben MusikerInnen",
				"type": "Konzert & Installation",
				"host": "Alan Hilario",
				"logos": [],
				"from": "1800",
				"to": "2000",
				"description": "Alan Hilario präsentiert sein eigens für die Räume der Wilhelmsburg komponiertes Werk der Neuen Musik",
				"img": "",
				"link": "",
				"price": ""
		},
		"busSchedule": {
			"to": ["1800","1830","1900","1930","2000","2130","2200", "2230", "2300", "2330"],
			"back": ["1815", "1845", "1915", "1945", "2115", "2145", "2215", "2245", "2315", "2345"]
		}
	}
]